$ 1 0.000005 0.22070718156067046 57 5 43
R 336 -128 336 -160 0 0 40 5 0 0 0.5
g 768 64 768 112 0
174 336 -128 336 -80 0 10000 0.09410000000000002 Resistance
g 336 -64 336 -48 0
w 352 -96 368 -96 0
f 704 -48 768 -48 32 1.5 0.02
f 704 16 768 16 32 1.5 0.02
w 368 -96 368 -48 0
w 768 -64 768 -112 0
w 768 -32 768 0 0
r 432 -144 432 -112 0 1000
w 432 -112 480 -112 0
f 368 -96 432 -96 32 1.5 0.02
R 432 -144 432 -176 0 0 40 5 0 0 0.5
g 432 -80 432 -64 0
g 432 80 432 96 0
R 432 16 432 -16 0 0 40 5 0 0 0.5
f 368 64 432 64 32 1.5 0.02
w 432 48 480 48 0
r 432 16 432 48 0 1000
w 368 64 368 112 0
w 352 64 368 64 0
g 336 96 336 112 0
174 336 32 336 80 0 10000 0.08420000000000001 Resistance
R 336 32 336 0 0 0 40 5 0 0 0.5
g 432 240 432 256 0
R 432 176 432 144 0 0 40 5 0 0 0.5
f 368 224 432 224 32 1.5 0.02
w 432 208 480 208 0
r 432 176 432 208 0 1000
w 368 224 368 272 0
w 352 224 368 224 0
g 336 256 336 272 0
174 336 192 336 240 0 10000 0.12380000000000002 Resistance
R 336 192 336 160 0 0 40 5 0 0 0.5
207 480 48 496 16 4 /B
207 704 16 688 -16 4 /B
207 480 -112 496 -144 4 /A
207 704 -48 688 -80 4 A
207 368 -96 384 -128 4 A
207 368 64 384 32 4 B
207 480 208 496 176 4 /C
207 368 224 384 192 4 C
w 768 32 768 64 0
w 880 32 880 64 0
207 816 -48 800 -80 4 /A
207 816 16 800 -16 4 B
w 880 -32 880 0 0
w 880 -64 880 -112 0
f 816 16 880 16 32 1.5 0.02
f 816 -48 880 -48 32 1.5 0.02
g 880 64 880 112 0
r 944 -112 944 -80 0 1000
w 944 -80 992 -80 0
f 880 -64 944 -64 32 1.5 0.02
R 944 -112 944 -144 0 0 40 5 0 0 0.5
g 944 -48 944 -32 0
207 992 -80 1008 -112 4 XOR_AB
r 880 -144 880 -112 0 1000
R 880 -144 880 -176 0 0 40 5 0 0 0.5
R 1232 176 1232 144 0 0 40 5 0 0 0.5
r 1232 176 1232 208 0 1000
r 1296 208 1296 240 0 1000
w 1296 240 1344 240 0
f 1232 256 1296 256 32 1.5 0.02
R 1296 208 1296 176 0 0 40 5 0 0 0.5
g 1296 272 1296 288 0
207 1344 240 1360 208 4 CARRY
g 1232 288 1232 304 0
f 1168 272 1232 272 32 1.5 0.02
w 1232 256 1232 208 0
207 1168 272 1152 240 4 AND2
207 1056 272 1040 240 4 AND1
f 1056 272 1120 272 32 1.5 0.02
g 1120 288 1120 304 0
w 1120 256 1120 208 0
w 1120 208 1232 208 0
R 864 208 864 176 0 0 40 5 0 0 0.5
r 864 208 864 240 0 1000
207 976 272 992 240 4 AND2
g 928 304 928 320 0
R 928 240 928 208 0 0 40 5 0 0 0.5
f 864 288 928 288 32 1.5 0.02
w 928 272 976 272 0
r 928 240 928 272 0 1000
207 736 272 752 240 4 AND1
g 688 304 688 320 0
R 688 240 688 208 0 0 40 5 0 0 0.5
f 624 288 688 288 32 1.5 0.02
w 688 272 736 272 0
r 688 240 688 272 0 1000
g 864 416 864 432 0
f 800 304 864 304 32 1.5 0.02
f 800 368 864 368 32 1.5 0.02
w 864 288 864 240 0
w 864 320 864 352 0
207 800 368 784 336 4 C
207 800 304 784 272 4 XOR_AB
w 864 384 864 416 0
w 624 384 624 416 0
207 560 304 544 272 4 A
207 560 368 544 336 4 B
r 624 208 624 240 0 1000
w 624 320 624 352 0
w 624 288 624 240 0
f 560 368 624 368 32 1.5 0.02
f 560 304 624 304 32 1.5 0.02
g 624 416 624 432 0
R 624 208 624 176 0 0 40 5 0 0 0.5
w 880 -112 768 -112 0
w 1232 -112 1120 -112 0
R 1232 -144 1232 -176 0 0 40 5 0 0 0.5
r 1232 -144 1232 -112 0 1000
207 1344 -80 1360 -112 4 SUM
g 1296 -48 1296 -32 0
R 1296 -112 1296 -144 0 0 40 5 0 0 0.5
f 1232 -64 1296 -64 32 1.5 0.02
w 1296 -80 1344 -80 0
r 1296 -112 1296 -80 0 1000
g 1232 64 1232 112 0
f 1168 -48 1232 -48 32 1.5 0.02
f 1168 16 1232 16 32 1.5 0.02
w 1232 -64 1232 -112 0
w 1232 -32 1232 0 0
207 1168 16 1152 -16 4 C
207 1168 -48 1152 -80 4 /XOR_AB
w 1232 32 1232 64 0
w 1120 32 1120 64 0
207 1056 -48 1040 -80 4 XOR_AB
207 1056 16 1040 -16 4 /C
w 1120 -32 1120 0 0
w 1120 -64 1120 -112 0
f 1056 16 1120 16 32 1.5 0.02
f 1056 -48 1120 -48 32 1.5 0.02
g 1120 64 1120 112 0
207 880 -64 912 -96 4 /XOR_AB
