<?xml version="1.0" encoding="UTF-8" standalone="no"?>
<!-- Created with Inkscape (http://www.inkscape.org/) -->

<svg
   xmlns:dc="http://purl.org/dc/elements/1.1/"
   xmlns:cc="http://creativecommons.org/ns#"
   xmlns:rdf="http://www.w3.org/1999/02/22-rdf-syntax-ns#"
   xmlns:svg="http://www.w3.org/2000/svg"
   xmlns="http://www.w3.org/2000/svg"
   xmlns:sodipodi="http://sodipodi.sourceforge.net/DTD/sodipodi-0.dtd"
   xmlns:inkscape="http://www.inkscape.org/namespaces/inkscape"
   width="210mm"
   height="297mm"
   viewBox="0 0 210 297"
   version="1.1"
   id="svg415"
   inkscape:version="0.92.3 (2405546, 2018-03-11)"
   sodipodi:docname="LabOrgA8_05.svg"
   inkscape:export-filename="/home/simoes/Documents/LabOrgA8_05.png"
   inkscape:export-xdpi="96"
   inkscape:export-ydpi="96">
  <defs
     id="defs409" />
  <sodipodi:namedview
     id="base"
     pagecolor="#ffffff"
     bordercolor="#666666"
     borderopacity="1.0"
     inkscape:pageopacity="0.0"
     inkscape:pageshadow="2"
     inkscape:zoom="0.7"
     inkscape:cx="604.01522"
     inkscape:cy="808.43656"
     inkscape:document-units="mm"
     inkscape:current-layer="layer1"
     showgrid="false"
     inkscape:window-width="1366"
     inkscape:window-height="741"
     inkscape:window-x="0"
     inkscape:window-y="27"
     inkscape:window-maximized="1" />
  <metadata
     id="metadata412">
    <rdf:RDF>
      <cc:Work
         rdf:about="">
        <dc:format>image/svg+xml</dc:format>
        <dc:type
           rdf:resource="http://purl.org/dc/dcmitype/StillImage" />
        <dc:title></dc:title>
      </cc:Work>
    </rdf:RDF>
  </metadata>
  <g
     inkscape:label="Layer 1"
     inkscape:groupmode="layer"
     id="layer1">
    <rect
       style="fill:#00ffff;stroke-width:0.26458332"
       id="rect417"
       width="101.02789"
       height="248.56067"
       x="104.23512"
       y="16.901535" />
    <text
       xml:space="preserve"
       style="font-style:normal;font-weight:normal;font-size:8.97972202px;line-height:1.25;font-family:sans-serif;letter-spacing:0px;word-spacing:0px;fill:#000000;fill-opacity:1;stroke:none;stroke-width:0.56123263"
       x="110.68995"
       y="26.773195"
       id="text421"
       transform="scale(0.97280837,1.0279517)"
       inkscape:export-xdpi="96"
       inkscape:export-ydpi="96"><tspan
         sodipodi:role="line"
         x="110.68995"
         y="26.773195"
         style="stroke-width:0.56123263"
         id="tspan4737">0000110000xxxxxxx</tspan><tspan
         sodipodi:role="line"
         x="110.68995"
         y="37.997849"
         style="stroke-width:0.56123263"
         id="tspan4739">Apagatela</tspan><tspan
         sodipodi:role="line"
         x="110.68995"
         y="49.2225"
         style="stroke-width:0.56123263"
         id="tspan4660">000000XXXXXXXXXX</tspan><tspan
         sodipodi:role="line"
         x="110.68995"
         y="60.447151"
         style="stroke-width:0.56123263"
         id="tspan423">111000000XXXXXXX</tspan><tspan
         sodipodi:role="line"
         x="110.68995"
         y="71.671806"
         style="stroke-width:0.56123263"
         id="tspan495">0000000000000101</tspan><tspan
         sodipodi:role="line"
         x="110.68995"
         y="82.896461"
         style="stroke-width:0.56123263"
         id="tspan692">110000001XXXXXXX</tspan><tspan
         sodipodi:role="line"
         x="110.68995"
         y="94.121109"
         style="stroke-width:0.56123263"
         id="tspan256">0000000011111111</tspan><tspan
         sodipodi:role="line"
         x="110.68995"
         y="105.34576"
         style="stroke-width:0.56123263"
         id="tspan254">110001100XXXXXXX</tspan><tspan
         sodipodi:role="line"
         x="110.68995"
         y="116.57042"
         style="stroke-width:0.56123263"
         id="tspan4572">0000000011111111</tspan><tspan
         sodipodi:role="line"
         x="110.68995"
         y="127.79507"
         style="stroke-width:0.56123263"
         id="tspan4570">Proxima Instrucao</tspan></text>
    <text
       xml:space="preserve"
       style="font-style:normal;font-weight:normal;font-size:4.23333311px;line-height:1.25;font-family:sans-serif;letter-spacing:0px;word-spacing:0px;fill:#000000;fill-opacity:1;stroke:none;stroke-width:0.26458332"
       x="21.922617"
       y="29.77083"
       id="text427"><tspan
         sodipodi:role="line"
         id="tspan425"
         x="21.922617"
         y="29.77083"
         style="stroke-width:0.26458332">IR = 111000000XXXXXXX</tspan><tspan
         sodipodi:role="line"
         x="21.922617"
         y="35.062496"
         style="stroke-width:0.26458332"
         id="tspan429" /><tspan
         sodipodi:role="line"
         x="21.922617"
         y="40.354164"
         style="stroke-width:0.26458332"
         id="tspan431">PC = 2</tspan><tspan
         sodipodi:role="line"
         x="21.922617"
         y="45.645828"
         style="stroke-width:0.26458332"
         id="tspan497" /><tspan
         sodipodi:role="line"
         x="21.922617"
         y="50.937496"
         style="stroke-width:0.26458332"
         id="tspan499">Perguntas:</tspan><tspan
         sodipodi:role="line"
         x="21.922617"
         y="56.22916"
         style="stroke-width:0.26458332"
         id="tspan501">1) O que tenho que fazer?</tspan><tspan
         sodipodi:role="line"
         x="21.922617"
         y="61.520828"
         style="stroke-width:0.26458332"
         id="tspan503">2) Onde começa?</tspan><tspan
         sodipodi:role="line"
         x="21.922617"
         y="66.812492"
         style="stroke-width:0.26458332"
         id="tspan578">3) Onde Termina?</tspan><tspan
         sodipodi:role="line"
         x="21.922617"
         y="72.104164"
         style="stroke-width:0.26458332"
         id="tspan580">4) Qual é o caminho?</tspan><tspan
         sodipodi:role="line"
         x="21.922617"
         y="77.395828"
         style="stroke-width:0.26458332"
         id="tspan686">Do todos os comandos...</tspan><tspan
         sodipodi:role="line"
         x="21.922617"
         y="82.687492"
         style="stroke-width:0.26458332"
         id="tspan688">5) Acabou??</tspan><tspan
         sodipodi:role="line"
         x="21.922617"
         y="87.979164"
         style="stroke-width:0.26458332"
         id="tspan690">6) E o PC ????????</tspan><tspan
         sodipodi:role="line"
         x="21.922617"
         y="93.270828"
         style="stroke-width:0.26458332"
         id="tspan4596" /><tspan
         sodipodi:role="line"
         x="21.922617"
         y="98.562492"
         style="stroke-width:0.26458332"
         id="tspan4598" /><tspan
         sodipodi:role="line"
         x="21.922617"
         y="103.85416"
         style="stroke-width:0.26458332"
         id="tspan4600" /></text>
    <text
       xml:space="preserve"
       style="font-style:normal;font-weight:normal;font-size:7.840343px;line-height:1.25;font-family:sans-serif;letter-spacing:0px;word-spacing:0px;fill:#000000;fill-opacity:1;stroke:none;stroke-width:0.49002144"
       x="105.92055"
       y="24.118021"
       id="text435"
       transform="scale(0.87307544,1.1453764)"><tspan
         sodipodi:role="line"
         id="tspan433"
         x="105.92055"
         y="24.118021"
         style="stroke-width:0.49002144">0</tspan><tspan
         sodipodi:role="line"
         x="105.92055"
         y="33.918449"
         style="stroke-width:0.49002144"
         id="tspan437">1</tspan><tspan
         sodipodi:role="line"
         x="105.92055"
         y="43.71888"
         style="stroke-width:0.49002144"
         id="tspan439">2</tspan><tspan
         sodipodi:role="line"
         x="105.92055"
         y="53.519306"
         style="stroke-width:0.49002144"
         id="tspan441">3</tspan><tspan
         sodipodi:role="line"
         x="105.92055"
         y="63.319736"
         style="stroke-width:0.49002144"
         id="tspan443">4</tspan><tspan
         sodipodi:role="line"
         x="105.92055"
         y="73.120163"
         style="stroke-width:0.49002144"
         id="tspan445">5</tspan><tspan
         sodipodi:role="line"
         x="105.92055"
         y="82.920593"
         style="stroke-width:0.49002144"
         id="tspan447">6</tspan><tspan
         sodipodi:role="line"
         x="105.92055"
         y="92.721024"
         style="stroke-width:0.49002144"
         id="tspan449">7</tspan><tspan
         sodipodi:role="line"
         x="105.92055"
         y="102.52145"
         style="stroke-width:0.49002144"
         id="tspan451">8</tspan><tspan
         sodipodi:role="line"
         x="105.92055"
         y="112.32188"
         style="stroke-width:0.49002144"
         id="tspan453">9</tspan><tspan
         sodipodi:role="line"
         x="105.92055"
         y="122.12231"
         style="stroke-width:0.49002144"
         id="tspan455">10</tspan><tspan
         sodipodi:role="line"
         x="105.92055"
         y="131.92274"
         style="stroke-width:0.49002144"
         id="tspan457">11</tspan><tspan
         sodipodi:role="line"
         x="105.92055"
         y="141.72316"
         style="stroke-width:0.49002144"
         id="tspan260">.</tspan><tspan
         sodipodi:role="line"
         x="105.92055"
         y="151.52359"
         style="stroke-width:0.49002144"
         id="tspan264">.</tspan><tspan
         sodipodi:role="line"
         x="105.92055"
         y="161.32402"
         style="stroke-width:0.49002144"
         id="tspan266">.</tspan><tspan
         sodipodi:role="line"
         x="105.92055"
         y="171.12445"
         style="stroke-width:0.49002144"
         id="tspan268">255</tspan></text>
    <rect
       style="fill:#00ffff;stroke-width:0.26458332"
       id="rect417-9"
       width="101.02789"
       height="248.56067"
       x="282.14688"
       y="15.260156" />
    <text
       xml:space="preserve"
       style="font-style:normal;font-weight:normal;font-size:10.90040398px;line-height:1.25;font-family:sans-serif;letter-spacing:0px;word-spacing:0px;fill:#000000;fill-opacity:1;stroke:none;stroke-width:0.68127525"
       x="204.54163"
       y="40.103275"
       id="text4795"
       transform="scale(1.3811336,0.7240429)"><tspan
         sodipodi:role="line"
         id="tspan4793"
         x="204.54163"
         y="40.103275"
         style="stroke-width:0.68127525">Letra</tspan><tspan
         sodipodi:role="line"
         x="204.54163"
         y="53.728779"
         style="stroke-width:0.68127525"
         id="tspan4797">posNave</tspan><tspan
         sodipodi:role="line"
         x="204.54163"
         y="67.354286"
         style="stroke-width:0.68127525"
         id="tspan4799">posAntNave</tspan><tspan
         sodipodi:role="line"
         x="204.54163"
         y="80.97979"
         style="stroke-width:0.68127525"
         id="tspan4801">posAlien</tspan><tspan
         sodipodi:role="line"
         x="204.54163"
         y="94.605293"
         style="stroke-width:0.68127525"
         id="tspan4803">posAntAlien</tspan><tspan
         sodipodi:role="line"
         x="204.54163"
         y="108.2308"
         style="stroke-width:0.68127525"
         id="tspan4805">posTiro</tspan><tspan
         sodipodi:role="line"
         x="204.54163"
         y="121.85631"
         style="stroke-width:0.68127525"
         id="tspan4807">posAntTiro</tspan><tspan
         sodipodi:role="line"
         x="204.54163"
         y="135.48181"
         style="stroke-width:0.68127525"
         id="tspan4809">FlagTiro</tspan><tspan
         sodipodi:role="line"
         x="204.54163"
         y="149.10732"
         style="stroke-width:0.68127525"
         id="tspan4811">IncRand</tspan></text>
    <text
       xml:space="preserve"
       style="font-style:normal;font-weight:normal;font-size:7.84034348px;line-height:1.25;font-family:sans-serif;letter-spacing:0px;word-spacing:0px;fill:#000000;fill-opacity:1;stroke:none;stroke-width:0.49002147"
       x="311.04407"
       y="24.973318"
       id="text435-6"
       transform="scale(0.87307544,1.1453764)"><tspan
         sodipodi:role="line"
         id="tspan433-2"
         x="311.04407"
         y="24.973318"
         style="stroke-width:0.49002147">0</tspan><tspan
         sodipodi:role="line"
         x="311.04407"
         y="34.773746"
         style="stroke-width:0.49002147"
         id="tspan437-9">1</tspan><tspan
         sodipodi:role="line"
         x="311.04407"
         y="44.574177"
         style="stroke-width:0.49002147"
         id="tspan439-1">2</tspan><tspan
         sodipodi:role="line"
         x="311.04407"
         y="54.374607"
         style="stroke-width:0.49002147"
         id="tspan441-2">3</tspan><tspan
         sodipodi:role="line"
         x="311.04407"
         y="64.175034"
         style="stroke-width:0.49002147"
         id="tspan443-7">4</tspan><tspan
         sodipodi:role="line"
         x="311.04407"
         y="73.975464"
         style="stroke-width:0.49002147"
         id="tspan445-0">5</tspan><tspan
         sodipodi:role="line"
         x="311.04407"
         y="83.775894"
         style="stroke-width:0.49002147"
         id="tspan447-9">6</tspan><tspan
         sodipodi:role="line"
         x="311.04407"
         y="93.576324"
         style="stroke-width:0.49002147"
         id="tspan449-3">7</tspan><tspan
         sodipodi:role="line"
         x="311.04407"
         y="103.37675"
         style="stroke-width:0.49002147"
         id="tspan451-6">8</tspan><tspan
         sodipodi:role="line"
         x="311.04407"
         y="113.17719"
         style="stroke-width:0.49002147"
         id="tspan453-0">9</tspan><tspan
         sodipodi:role="line"
         x="311.04407"
         y="122.97762"
         style="stroke-width:0.49002147"
         id="tspan455-6">10</tspan><tspan
         sodipodi:role="line"
         x="311.04407"
         y="132.77805"
         style="stroke-width:0.49002147"
         id="tspan457-2">11</tspan><tspan
         sodipodi:role="line"
         x="311.04407"
         y="142.57848"
         style="stroke-width:0.49002147"
         id="tspan260-6">.</tspan><tspan
         sodipodi:role="line"
         x="311.04407"
         y="152.37891"
         style="stroke-width:0.49002147"
         id="tspan264-1">.</tspan><tspan
         sodipodi:role="line"
         x="311.04407"
         y="162.17932"
         style="stroke-width:0.49002147"
         id="tspan266-8">.</tspan><tspan
         sodipodi:role="line"
         x="311.04407"
         y="171.97975"
         style="stroke-width:0.49002147"
         id="tspan268-7">255             Dados</tspan></text>
    <text
       xml:space="preserve"
       style="font-style:normal;font-weight:normal;font-size:4.23333311px;line-height:1.25;font-family:sans-serif;letter-spacing:0px;word-spacing:0px;fill:#000000;fill-opacity:1;stroke:none;stroke-width:0.26458332"
       x="303.08362"
       y="8.3489103"
       id="text4912"><tspan
         sodipodi:role="line"
         id="tspan4910"
         x="303.08362"
         y="8.3489103"
         style="stroke-width:0.26458332">MEMÓRIA DE DADOS</tspan></text>
    <text
       xml:space="preserve"
       style="font-style:normal;font-weight:normal;font-size:4.23333311px;line-height:1.25;font-family:sans-serif;letter-spacing:0px;word-spacing:0px;fill:#000000;fill-opacity:1;stroke:none;stroke-width:0.26458332"
       x="130.40178"
       y="12.005952"
       id="text4916"><tspan
         sodipodi:role="line"
         id="tspan4914"
         x="130.40178"
         y="12.005952"
         style="stroke-width:0.26458332">MEMÉRIA DE PROGRAMA</tspan></text>
  </g>
</svg>
